{ "artists": { "href": "https://api.spotify.com/v1/search?query=toto&type=artist&offset=0&limit=20", "items": [ { "external_urls": { "spotify": "https://open.spotify.com/artist/0PFtn5NtBbbUNbU9EAmIWF" }, "followers": { "href": null, "total": 489077 }, "genres": [ "album rock", "mellow gold", "rock", "soft rock" ], "href": "https://api.spotify.com/v1/artists/0PFtn5NtBbbUNbU9EAmIWF", "id": "0PFtn5NtBbbUNbU9EAmIWF", "images": [ { "height": 640, "url": "https://i.scdn.co/image/920662deb845639c9d1859024374e82761a0117f", "width": 640 }, { "height": 320, "url": "https://i.scdn.co/image/cf4a4a15193dc5b4455363ad0fa91bdd81bd6804", "width": 320 }, { "height": 160, "url": "https://i.scdn.co/image/8905847aa12cd4e45cad8b9819434b667fbfc2c6", "width": 160 } ], "name": "Toto", "popularity": 76, "type": "artist", "uri": "spotify:artist:0PFtn5NtBbbUNbU9EAmIWF" }, { "external_urls": { "spotify": "https://open.spotify.com/artist/26BL0aeVS96sje8JfCNfUk" }, "followers": { "href": null, "total": 25736 }, "genres": [ "cumbia", "porro" ], "href": "https://api.spotify.com/v1/artists/26BL0aeVS96sje8JfCNfUk", "id": "26BL0aeVS96sje8JfCNfUk", "images": [ { "height": 640, "url": "https://i.scdn.co/image/ca17c01c167871b31dfc0a4b9c7b99b78333abbd", "width": 640 }, { "height": 320, "url": "https://i.scdn.co/image/53ab95ec285d519eefbb82faa7faa994757c9267", "width": 320 }, { "height": 160, "url": "https://i.scdn.co/image/8e1f3c0abdf434c4e6175fcea5e6461648379153", "width": 160 } ], "name": "Totó La Momposina", "popularity": 57, "type": "artist", "uri": "spotify:artist:26BL0aeVS96sje8JfCNfUk" }, { "external_urls": { "spotify": "https://open.spotify.com/artist/6elIiwc8OyeqKxXe2rmPXZ" }, "followers": { "href": null, "total": 16022 }, "genres": [ "classic italian pop", "italian pop" ], "href": "https://api.spotify.com/v1/artists/6elIiwc8OyeqKxXe2rmPXZ", "id": "6elIiwc8OyeqKxXe2rmPXZ", "images": [ { "height": 640, "url": "https://i.scdn.co/image/6ae619c81b560e76e64b63f735114078179b1318", "width": 640 }, { "height": 300, "url": "https://i.scdn.co/image/f218a2b34207caaba8149eb6c98bd1678ea7a011", "width": 300 }, { "height": 64, "url": "https://i.scdn.co/image/ebeb0dff74c33329305986a759f4f56ce64cc610", "width": 64 } ], "name": "Toto Cutugno", "popularity": 47, "type": "artist", "uri": "spotify:artist:6elIiwc8OyeqKxXe2rmPXZ" }, { "external_urls": { "spotify": "https://open.spotify.com/artist/4BFLElxtBEdsdwGA1kHTsx" }, "followers": { "href": null, "total": 441 }, "genres": [], "href": "https://api.spotify.com/v1/artists/4BFLElxtBEdsdwGA1kHTsx", "id": "4BFLElxtBEdsdwGA1kHTsx", "images": [ { "height": 640, "url": "https://i.scdn.co/image/94ad076ae0eeb1bef438361707d2d9bd6520c6b0", "width": 640 }, { "height": 300, "url": "https://i.scdn.co/image/6a456abd08c1741dd792de5fdcc626f1135eaba0", "width": 300 }, { "height": 64, "url": "https://i.scdn.co/image/fc6342babcdf608d04874ffe0704d5183a3332b6", "width": 64 } ], "name": "Toto", "popularity": 33, "type": "artist", "uri": "spotify:artist:4BFLElxtBEdsdwGA1kHTsx" }, { "external_urls": { "spotify": "https://open.spotify.com/artist/6D8k7RVU9Q0Exn2H6Jv2QA" }, "followers": { "href": null, "total": 47 }, "genres": [], "href": "https://api.spotify.com/v1/artists/6D8k7RVU9Q0Exn2H6Jv2QA", "id": "6D8k7RVU9Q0Exn2H6Jv2QA", "images": [ { "height": 640, "url": "https://i.scdn.co/image/9fdb628dc96cd815080cabbf7cd3e5d9927c13df", "width": 640 }, { "height": 300, "url": "https://i.scdn.co/image/0d8d3959aee3658a84d82f306477453f3905d669", "width": 300 }, { "height": 64, "url": "https://i.scdn.co/image/433e463085d3d1904c254ae1851f866f1516cec4", "width": 64 } ], "name": "toto", "popularity": 17, "type": "artist", "uri": "spotify:artist:6D8k7RVU9Q0Exn2H6Jv2QA" }, { "external_urls": { "spotify": "https://open.spotify.com/artist/2nbTrndWzGHdI3jDqCmTrj" }, "followers": { "href": null, "total": 44 }, "genres": [], "href": "https://api.spotify.com/v1/artists/2nbTrndWzGHdI3jDqCmTrj", "id": "2nbTrndWzGHdI3jDqCmTrj", "images": [], "name": "Toto", "popularity": 20, "type": "artist", "uri": "spotify:artist:2nbTrndWzGHdI3jDqCmTrj" }, { "external_urls": { "spotify": "https://open.spotify.com/artist/5yGh5A5zAzDYeAeSksnWiW" }, "followers": { "href": null, "total": 862 }, "genres": [], "href": "https://api.spotify.com/v1/artists/5yGh5A5zAzDYeAeSksnWiW", "id": "5yGh5A5zAzDYeAeSksnWiW", "images": [ { "height": 640, "url": "https://i.scdn.co/image/35ec2a61327caf6ee0a45abf35004f5f788f2f01", "width": 640 }, { "height": 300, "url": "https://i.scdn.co/image/6a458aa295cc7f6df95eb2393a2ff364cdb2a069", "width": 300 }, { "height": 64, "url": "https://i.scdn.co/image/5f3a9eb56d82219591616e33d2cdb18804baa3b7", "width": 64 } ], "name": "Gerald Toto", "popularity": 28, "type": "artist", "uri": "spotify:artist:5yGh5A5zAzDYeAeSksnWiW" }, { "external_urls": { "spotify": "https://open.spotify.com/artist/6J9jWZeMO2D14IJEO1gbmr" }, "followers": { "href": null, "total": 746 }, "genres": [], "href": "https://api.spotify.com/v1/artists/6J9jWZeMO2D14IJEO1gbmr", "id": "6J9jWZeMO2D14IJEO1gbmr", "images": [ { "height": 640, "url": "https://i.scdn.co/image/afdb32fefab1d59e06827756bb37c32f948d09b3", "width": 640 }, { "height": 300, "url": "https://i.scdn.co/image/813a46a699e51af3fd848906779c1967beed6d29", "width": 300 }, { "height": 64, "url": "https://i.scdn.co/image/0a8950e87571a7f605eb3647345bcd30687fdf71", "width": 64 } ], "name": "Toto Coelo", "popularity": 21, "type": "artist", "uri": "spotify:artist:6J9jWZeMO2D14IJEO1gbmr" }, { "external_urls": { "spotify": "https://open.spotify.com/artist/2FuKS7GsD89q336FtXQW05" }, "followers": { "href": null, "total": 717 }, "genres": [ "kompa" ], "href": "https://api.spotify.com/v1/artists/2FuKS7GsD89q336FtXQW05", "id": "2FuKS7GsD89q336FtXQW05", "images": [ { "height": 640, "url": "https://i.scdn.co/image/a31b14b1e210bc8abeb7eaae70fe1fdc6a1b374d", "width": 640 }, { "height": 300, "url": "https://i.scdn.co/image/7553e9f4c260255ab90f292f4b55682ac9b25a5b", "width": 300 }, { "height": 64, "url": "https://i.scdn.co/image/56052ef4f41af70fd8e9e67ef4c269e95e7ceda8", "width": 64 } ], "name": "Toto Nécessité", "popularity": 16, "type": "artist", "uri": "spotify:artist:2FuKS7GsD89q336FtXQW05" }, { "external_urls": { "spotify": "https://open.spotify.com/artist/6YPMNZ05rT4yWeAIYI4JS2" }, "followers": { "href": null, "total": 203 }, "genres": [], "href": "https://api.spotify.com/v1/artists/6YPMNZ05rT4yWeAIYI4JS2", "id": "6YPMNZ05rT4yWeAIYI4JS2", "images": [ { "height": 640, "url": "https://i.scdn.co/image/744a13d0c70243bb0d9abd5b4da978450a469a7c", "width": 640 }, { "height": 300, "url": "https://i.scdn.co/image/63bc04a4708db4dcfcfd3d6056871037eb184649", "width": 300 }, { "height": 64, "url": "https://i.scdn.co/image/890f5ae0d753b4feff75ee11e696050c41b9c6fa", "width": 64 } ], "name": "Totò", "popularity": 6, "type": "artist", "uri": "spotify:artist:6YPMNZ05rT4yWeAIYI4JS2" }, { "external_urls": { "spotify": "https://open.spotify.com/artist/4tBn1B8LTe5gf62hl0d2y5" }, "followers": { "href": null, "total": 39 }, "genres": [], "href": "https://api.spotify.com/v1/artists/4tBn1B8LTe5gf62hl0d2y5", "id": "4tBn1B8LTe5gf62hl0d2y5", "images": [ { "height": 640, "url": "https://i.scdn.co/image/ee05a11d8f446f5f65c0ece41b4f938e1e4832f7", "width": 640 }, { "height": 300, "url": "https://i.scdn.co/image/339356124d49dda20903ea25735c3c28a7f80e0e", "width": 300 }, { "height": 64, "url": "https://i.scdn.co/image/445f158c77c07ff6904b98c98db6026f2bace66c", "width": 64 } ], "name": "Totó", "popularity": 1, "type": "artist", "uri": "spotify:artist:4tBn1B8LTe5gf62hl0d2y5" }, { "external_urls": { "spotify": "https://open.spotify.com/artist/5warsDw2Xo6qWp2D89GyCH" }, "followers": { "href": null, "total": 16 }, "genres": [], "href": "https://api.spotify.com/v1/artists/5warsDw2Xo6qWp2D89GyCH", "id": "5warsDw2Xo6qWp2D89GyCH", "images": [], "name": "Totó", "popularity": 0, "type": "artist", "uri": "spotify:artist:5warsDw2Xo6qWp2D89GyCH" }, { "external_urls": { "spotify": "https://open.spotify.com/artist/6ov5hfS21dAzZpf5pb6sqS" }, "followers": { "href": null, "total": 9 }, "genres": [], "href": "https://api.spotify.com/v1/artists/6ov5hfS21dAzZpf5pb6sqS", "id": "6ov5hfS21dAzZpf5pb6sqS", "images": [ { "height": 640, "url": "https://i.scdn.co/image/5f6b104278310695cfcda700b0b045db20620b60", "width": 640 }, { "height": 300, "url": "https://i.scdn.co/image/657106c98cfd90f1be3081931d2c322bcfc77f3c", "width": 300 }, { "height": 64, "url": "https://i.scdn.co/image/d6655cbb75a2cf0fdb0c8760fa03def31db812fe", "width": 64 } ], "name": "Toto", "popularity": 2, "type": "artist", "uri": "spotify:artist:6ov5hfS21dAzZpf5pb6sqS" }, { "external_urls": { "spotify": "https://open.spotify.com/artist/6ngONREe1KKdIstJJgRIup" }, "followers": { "href": null, "total": 0 }, "genres": [], "href": "https://api.spotify.com/v1/artists/6ngONREe1KKdIstJJgRIup", "id": "6ngONREe1KKdIstJJgRIup", "images": [], "name": "TOTO", "popularity": 5, "type": "artist", "uri": "spotify:artist:6ngONREe1KKdIstJJgRIup" }, { "external_urls": { "spotify": "https://open.spotify.com/artist/1phpodkeTHnsr3SACcKBX9" }, "followers": { "href": null, "total": 0 }, "genres": [], "href": "https://api.spotify.com/v1/artists/1phpodkeTHnsr3SACcKBX9", "id": "1phpodkeTHnsr3SACcKBX9", "images": [], "name": "Toto", "popularity": 0, "type": "artist", "uri": "spotify:artist:1phpodkeTHnsr3SACcKBX9" }, { "external_urls": { "spotify": "https://open.spotify.com/artist/0DBwNrdGSluzJl24pHRiOk" }, "followers": { "href": null, "total": 459 }, "genres": [], "href": "https://api.spotify.com/v1/artists/0DBwNrdGSluzJl24pHRiOk", "id": "0DBwNrdGSluzJl24pHRiOk", "images": [ { "height": 640, "url": "https://i.scdn.co/image/24aef1b424c930bb72abfecbc03d26a648eb4fa3", "width": 640 }, { "height": 300, "url": "https://i.scdn.co/image/aa021900b07ed65ae535940ba216f77f7ab8a275", "width": 300 }, { "height": 64, "url": "https://i.scdn.co/image/f5ed306604a58b851a7ecb9932b0fd5c1b603067", "width": 64 } ], "name": "Toto Chiavetta", "popularity": 22, "type": "artist", "uri": "spotify:artist:0DBwNrdGSluzJl24pHRiOk" }, { "external_urls": { "spotify": "https://open.spotify.com/artist/3vFDvFtR8VKEITzDa2ddKe" }, "followers": { "href": null, "total": 608 }, "genres": [], "href": "https://api.spotify.com/v1/artists/3vFDvFtR8VKEITzDa2ddKe", "id": "3vFDvFtR8VKEITzDa2ddKe", "images": [ { "height": 640, "url": "https://i.scdn.co/image/97ea7c03c29e6d8ad20404b65795f5f3c9892407", "width": 640 }, { "height": 320, "url": "https://i.scdn.co/image/9f58f117117b9c2a50c1ce0c76180f9dd0a6e49a", "width": 320 }, { "height": 160, "url": "https://i.scdn.co/image/341bafc04f509bff81492c2c1c21203d69de59a6", "width": 160 } ], "name": "Toto Sorioso", "popularity": 34, "type": "artist", "uri": "spotify:artist:3vFDvFtR8VKEITzDa2ddKe" }, { "external_urls": { "spotify": "https://open.spotify.com/artist/1xZ2hj6YaQ4NxERmaHXwrr" }, "followers": { "href": null, "total": 1327 }, "genres": [], "href": "https://api.spotify.com/v1/artists/1xZ2hj6YaQ4NxERmaHXwrr", "id": "1xZ2hj6YaQ4NxERmaHXwrr", "images": [], "name": "TOTO COTUGNO", "popularity": 15, "type": "artist", "uri": "spotify:artist:1xZ2hj6YaQ4NxERmaHXwrr" }, { "external_urls": { "spotify": "https://open.spotify.com/artist/0OQATyHsY2Zgr7NlvARJ7j" }, "followers": { "href": null, "total": 318 }, "genres": [ "kompa" ], "href": "https://api.spotify.com/v1/artists/0OQATyHsY2Zgr7NlvARJ7j", "id": "0OQATyHsY2Zgr7NlvARJ7j", "images": [ { "height": 640, "url": "https://i.scdn.co/image/10d181cd3c838ebb9b5ab2710fd51e2caa828d7c", "width": 640 }, { "height": 300, "url": "https://i.scdn.co/image/8ca38d467c46021c84764c2e8b60f8f5acaf9dce", "width": 300 }, { "height": 64, "url": "https://i.scdn.co/image/64a4d226fb92732239f9649f050749744e37469b", "width": 64 } ], "name": "Toto Bissainthe", "popularity": 11, "type": "artist", "uri": "spotify:artist:0OQATyHsY2Zgr7NlvARJ7j" }, { "external_urls": { "spotify": "https://open.spotify.com/artist/5y4XN2SJVH1eWbXhRS7lbK" }, "followers": { "href": null, "total": 445 }, "genres": [ "mande pop", "world" ], "href": "https://api.spotify.com/v1/artists/5y4XN2SJVH1eWbXhRS7lbK", "id": "5y4XN2SJVH1eWbXhRS7lbK", "images": [ { "height": 640, "url": "https://i.scdn.co/image/96318e6ad3cb2ca625da2b6bc167a6940f77e084", "width": 640 }, { "height": 300, "url": "https://i.scdn.co/image/cae786a6e22b69c7709f704117ba4a30530756aa", "width": 300 }, { "height": 64, "url": "https://i.scdn.co/image/1390b7a9cfea5e251811b582879d29de466b5c4c", "width": 64 } ], "name": "Toto Bona Lokua", "popularity": 29, "type": "artist", "uri": "spotify:artist:5y4XN2SJVH1eWbXhRS7lbK" } ], "limit": 20, "next": "https://api.spotify.com/v1/search?query=toto&type=artist&offset=20&limit=20", "offset": 0, "previous": null, "total": 170 } }